QuartusProject/simulation/qsim/ProjetoFinal.msim.vcd
$comment
	File created using the following command:
		vcd file ProjetoFinal.msim.vcd -direction
$end
$date
	Sat Nov 18 11:13:28 2023
$end
$version
	ModelSim Version 10.5b
$end
$timescale
	1ps
$end

$scope module projetofinal_vhd_vec_tst $end
$var wire 1 ! clkBoard $end
$var wire 1 " hex0 [3] $end
$var wire 1 # hex0 [2] $end
$var wire 1 $ hex0 [1] $end
$var wire 1 % hex0 [0] $end
$var wire 1 & hex1 [3] $end
$var wire 1 ' hex1 [2] $end
$var wire 1 ( hex1 [1] $end
$var wire 1 ) hex1 [0] $end
$var wire 1 * hex2 [3] $end
$var wire 1 + hex2 [2] $end
$var wire 1 , hex2 [1] $end
$var wire 1 - hex2 [0] $end
$var wire 1 . hex3 [3] $end
$var wire 1 / hex3 [2] $end
$var wire 1 0 hex3 [1] $end
$var wire 1 1 hex3 [0] $end

$scope module i1 $end
$var wire 1 2 gnd $end
$var wire 1 3 vcc $end
$var wire 1 4 unknown $end
$var wire 1 5 devoe $end
$var wire 1 6 devclrn $end
$var wire 1 7 devpor $end
$var wire 1 8 ww_devoe $end
$var wire 1 9 ww_devclrn $end
$var wire 1 : ww_devpor $end
$var wire 1 ; ww_clkBoard $end
$var wire 1 < ww_hex0 [3] $end
$var wire 1 = ww_hex0 [2] $end
$var wire 1 > ww_hex0 [1] $end
$var wire 1 ? ww_hex0 [0] $end
$var wire 1 @ ww_hex1 [3] $end
$var wire 1 A ww_hex1 [2] $end
$var wire 1 B ww_hex1 [1] $end
$var wire 1 C ww_hex1 [0] $end
$var wire 1 D ww_hex2 [3] $end
$var wire 1 E ww_hex2 [2] $end
$var wire 1 F ww_hex2 [1] $end
$var wire 1 G ww_hex2 [0] $end
$var wire 1 H ww_hex3 [3] $end
$var wire 1 I ww_hex3 [2] $end
$var wire 1 J ww_hex3 [1] $end
$var wire 1 K ww_hex3 [0] $end
$var wire 1 L \Rom0|altsyncram_component|auto_generated|ram_block1a0_PORTAADDR_bus\ [3] $end
$var wire 1 M \Rom0|altsyncram_component|auto_generated|ram_block1a0_PORTAADDR_bus\ [2] $end
$var wire 1 N \Rom0|altsyncram_component|auto_generated|ram_block1a0_PORTAADDR_bus\ [1] $end
$var wire 1 O \Rom0|altsyncram_component|auto_generated|ram_block1a0_PORTAADDR_bus\ [0] $end
$var wire 1 P \Rom0|altsyncram_component|auto_generated|ram_block1a0_PORTADATAOUT_bus\ [17] $end
$var wire 1 Q \Rom0|altsyncram_component|auto_generated|ram_block1a0_PORTADATAOUT_bus\ [16] $end
$var wire 1 R \Rom0|altsyncram_component|auto_generated|ram_block1a0_PORTADATAOUT_bus\ [15] $end
$var wire 1 S \Rom0|altsyncram_component|auto_generated|ram_block1a0_PORTADATAOUT_bus\ [14] $end
$var wire 1 T \Rom0|altsyncram_component|auto_generated|ram_block1a0_PORTADATAOUT_bus\ [13] $end
$var wire 1 U \Rom0|altsyncram_component|auto_generated|ram_block1a0_PORTADATAOUT_bus\ [12] $end
$var wire 1 V \Rom0|altsyncram_component|auto_generated|ram_block1a0_PORTADATAOUT_bus\ [11] $end
$var wire 1 W \Rom0|altsyncram_component|auto_generated|ram_block1a0_PORTADATAOUT_bus\ [10] $end
$var wire 1 X \Rom0|altsyncram_component|auto_generated|ram_block1a0_PORTADATAOUT_bus\ [9] $end
$var wire 1 Y \Rom0|altsyncram_component|auto_generated|ram_block1a0_PORTADATAOUT_bus\ [8] $end
$var wire 1 Z \Rom0|altsyncram_component|auto_generated|ram_block1a0_PORTADATAOUT_bus\ [7] $end
$var wire 1 [ \Rom0|altsyncram_component|auto_generated|ram_block1a0_PORTADATAOUT_bus\ [6] $end
$var wire 1 \ \Rom0|altsyncram_component|auto_generated|ram_block1a0_PORTADATAOUT_bus\ [5] $end
$var wire 1 ] \Rom0|altsyncram_component|auto_generated|ram_block1a0_PORTADATAOUT_bus\ [4] $end
$var wire 1 ^ \Rom0|altsyncram_component|auto_generated|ram_block1a0_PORTADATAOUT_bus\ [3] $end
$var wire 1 _ \Rom0|altsyncram_component|auto_generated|ram_block1a0_PORTADATAOUT_bus\ [2] $end
$var wire 1 ` \Rom0|altsyncram_component|auto_generated|ram_block1a0_PORTADATAOUT_bus\ [1] $end
$var wire 1 a \Rom0|altsyncram_component|auto_generated|ram_block1a0_PORTADATAOUT_bus\ [0] $end
$var wire 1 b \Ram0|altsyncram_component|auto_generated|ram_block1a0_PORTADATAIN_bus\ [17] $end
$var wire 1 c \Ram0|altsyncram_component|auto_generated|ram_block1a0_PORTADATAIN_bus\ [16] $end
$var wire 1 d \Ram0|altsyncram_component|auto_generated|ram_block1a0_PORTADATAIN_bus\ [15] $end
$var wire 1 e \Ram0|altsyncram_component|auto_generated|ram_block1a0_PORTADATAIN_bus\ [14] $end
$var wire 1 f \Ram0|altsyncram_component|auto_generated|ram_block1a0_PORTADATAIN_bus\ [13] $end
$var wire 1 g \Ram0|altsyncram_component|auto_generated|ram_block1a0_PORTADATAIN_bus\ [12] $end
$var wire 1 h \Ram0|altsyncram_component|auto_generated|ram_block1a0_PORTADATAIN_bus\ [11] $end
$var wire 1 i \Ram0|altsyncram_component|auto_generated|ram_block1a0_PORTADATAIN_bus\ [10] $end
$var wire 1 j \Ram0|altsyncram_component|auto_generated|ram_block1a0_PORTADATAIN_bus\ [9] $end
$var wire 1 k \Ram0|altsyncram_component|auto_generated|ram_block1a0_PORTADATAIN_bus\ [8] $end
$var wire 1 l \Ram0|altsyncram_component|auto_generated|ram_block1a0_PORTADATAIN_bus\ [7] $end
$var wire 1 m \Ram0|altsyncram_component|auto_generated|ram_block1a0_PORTADATAIN_bus\ [6] $end
$var wire 1 n \Ram0|altsyncram_component|auto_generated|ram_block1a0_PORTADATAIN_bus\ [5] $end
$var wire 1 o \Ram0|altsyncram_component|auto_generated|ram_block1a0_PORTADATAIN_bus\ [4] $end
$var wire 1 p \Ram0|altsyncram_component|auto_generated|ram_block1a0_PORTADATAIN_bus\ [3] $end
$var wire 1 q \Ram0|altsyncram_component|auto_generated|ram_block1a0_PORTADATAIN_bus\ [2] $end
$var wire 1 r \Ram0|altsyncram_component|auto_generated|ram_block1a0_PORTADATAIN_bus\ [1] $end
$var wire 1 s \Ram0|altsyncram_component|auto_generated|ram_block1a0_PORTADATAIN_bus\ [0] $end
$var wire 1 t \Ram0|altsyncram_component|auto_generated|ram_block1a0_PORTAADDR_bus\ [3] $end
$var wire 1 u \Ram0|altsyncram_component|auto_generated|ram_block1a0_PORTAADDR_bus\ [2] $end
$var wire 1 v \Ram0|altsyncram_component|auto_generated|ram_block1a0_PORTAADDR_bus\ [1] $end
$var wire 1 w \Ram0|altsyncram_component|auto_generated|ram_block1a0_PORTAADDR_bus\ [0] $end
$var wire 1 x \Ram0|altsyncram_component|auto_generated|ram_block1a0_PORTADATAOUT_bus\ [17] $end
$var wire 1 y \Ram0|altsyncram_component|auto_generated|ram_block1a0_PORTADATAOUT_bus\ [16] $end
$var wire 1 z \Ram0|altsyncram_component|auto_generated|ram_block1a0_PORTADATAOUT_bus\ [15] $end
$var wire 1 { \Ram0|altsyncram_component|auto_generated|ram_block1a0_PORTADATAOUT_bus\ [14] $end
$var wire 1 | \Ram0|altsyncram_component|auto_generated|ram_block1a0_PORTADATAOUT_bus\ [13] $end
$var wire 1 } \Ram0|altsyncram_component|auto_generated|ram_block1a0_PORTADATAOUT_bus\ [12] $end
$var wire 1 ~ \Ram0|altsyncram_component|auto_generated|ram_block1a0_PORTADATAOUT_bus\ [11] $end
$var wire 1 !! \Ram0|altsyncram_component|auto_generated|ram_block1a0_PORTADATAOUT_bus\ [10] $end
$var wire 1 "! \Ram0|altsyncram_component|auto_generated|ram_block1a0_PORTADATAOUT_bus\ [9] $end
$var wire 1 #! \Ram0|altsyncram_component|auto_generated|ram_block1a0_PORTADATAOUT_bus\ [8] $end
$var wire 1 $! \Ram0|altsyncram_component|auto_generated|ram_block1a0_PORTADATAOUT_bus\ [7] $end
$var wire 1 %! \Ram0|altsyncram_component|auto_generated|ram_block1a0_PORTADATAOUT_bus\ [6] $end
$var wire 1 &! \Ram0|altsyncram_component|auto_generated|ram_block1a0_PORTADATAOUT_bus\ [5] $end
$var wire 1 '! \Ram0|altsyncram_component|auto_generated|ram_block1a0_PORTADATAOUT_bus\ [4] $end
$var wire 1 (! \Ram0|altsyncram_component|auto_generated|ram_block1a0_PORTADATAOUT_bus\ [3] $end
$var wire 1 )! \Ram0|altsyncram_component|auto_generated|ram_block1a0_PORTADATAOUT_bus\ [2] $end
$var wire 1 *! \Ram0|altsyncram_component|auto_generated|ram_block1a0_PORTADATAOUT_bus\ [1] $end
$var wire 1 +! \Ram0|altsyncram_component|auto_generated|ram_block1a0_PORTADATAOUT_bus\ [0] $end
$var wire 1 ,! \~QUARTUS_CREATED_ADC1~_CHSEL_bus\ [4] $end
$var wire 1 -! \~QUARTUS_CREATED_ADC1~_CHSEL_bus\ [3] $end
$var wire 1 .! \~QUARTUS_CREATED_ADC1~_CHSEL_bus\ [2] $end
$var wire 1 /! \~QUARTUS_CREATED_ADC1~_CHSEL_bus\ [1] $end
$var wire 1 0! \~QUARTUS_CREATED_ADC1~_CHSEL_bus\ [0] $end
$var wire 1 1! \~QUARTUS_CREATED_ADC2~_CHSEL_bus\ [4] $end
$var wire 1 2! \~QUARTUS_CREATED_ADC2~_CHSEL_bus\ [3] $end
$var wire 1 3! \~QUARTUS_CREATED_ADC2~_CHSEL_bus\ [2] $end
$var wire 1 4! \~QUARTUS_CREATED_ADC2~_CHSEL_bus\ [1] $end
$var wire 1 5! \~QUARTUS_CREATED_ADC2~_CHSEL_bus\ [0] $end
$var wire 1 6! \clkRam~clkctrl_INCLK_bus\ [3] $end
$var wire 1 7! \clkRam~clkctrl_INCLK_bus\ [2] $end
$var wire 1 8! \clkRam~clkctrl_INCLK_bus\ [1] $end
$var wire 1 9! \clkRam~clkctrl_INCLK_bus\ [0] $end
$var wire 1 :! \clkAccu~clkctrl_INCLK_bus\ [3] $end
$var wire 1 ;! \clkAccu~clkctrl_INCLK_bus\ [2] $end
$var wire 1 <! \clkAccu~clkctrl_INCLK_bus\ [1] $end
$var wire 1 =! \clkAccu~clkctrl_INCLK_bus\ [0] $end
$var wire 1 >! \clkRom~clkctrl_INCLK_bus\ [3] $end
$var wire 1 ?! \clkRom~clkctrl_INCLK_bus\ [2] $end
$var wire 1 @! \clkRom~clkctrl_INCLK_bus\ [1] $end
$var wire 1 A! \clkRom~clkctrl_INCLK_bus\ [0] $end
$var wire 1 B! \clkBoard~inputclkctrl_INCLK_bus\ [3] $end
$var wire 1 C! \clkBoard~inputclkctrl_INCLK_bus\ [2] $end
$var wire 1 D! \clkBoard~inputclkctrl_INCLK_bus\ [1] $end
$var wire 1 E! \clkBoard~inputclkctrl_INCLK_bus\ [0] $end
$var wire 1 F! \clkMux~clkctrl_INCLK_bus\ [3] $end
$var wire 1 G! \clkMux~clkctrl_INCLK_bus\ [2] $end
$var wire 1 H! \clkMux~clkctrl_INCLK_bus\ [1] $end
$var wire 1 I! \clkMux~clkctrl_INCLK_bus\ [0] $end
$var wire 1 J! \DivFreq0|FFJK3|temp~clkctrl_INCLK_bus\ [3] $end
$var wire 1 K! \DivFreq0|FFJK3|temp~clkctrl_INCLK_bus\ [2] $end
$var wire 1 L! \DivFreq0|FFJK3|temp~clkctrl_INCLK_bus\ [1] $end
$var wire 1 M! \DivFreq0|FFJK3|temp~clkctrl_INCLK_bus\ [0] $end
$var wire 1 N! \~QUARTUS_CREATED_GND~I_combout\ $end
$var wire 1 O! \~QUARTUS_CREATED_UNVM~~busy\ $end
$var wire 1 P! \~QUARTUS_CREATED_ADC1~~eoc\ $end
$var wire 1 Q! \~QUARTUS_CREATED_ADC2~~eoc\ $end
$var wire 1 R! \hex0[0]~output_o\ $end
$var wire 1 S! \hex0[1]~output_o\ $end
$var wire 1 T! \hex0[2]~output_o\ $end
$var wire 1 U! \hex0[3]~output_o\ $end
$var wire 1 V! \hex1[0]~output_o\ $end
$var wire 1 W! \hex1[1]~output_o\ $end
$var wire 1 X! \hex1[2]~output_o\ $end
$var wire 1 Y! \hex1[3]~output_o\ $end
$var wire 1 Z! \hex2[0]~output_o\ $end
$var wire 1 [! \hex2[1]~output_o\ $end
$var wire 1 \! \hex2[2]~output_o\ $end
$var wire 1 ]! \hex2[3]~output_o\ $end
$var wire 1 ^! \hex3[0]~output_o\ $end
$var wire 1 _! \hex3[1]~output_o\ $end
$var wire 1 `! \hex3[2]~output_o\ $end
$var wire 1 a! \hex3[3]~output_o\ $end
$var wire 1 b! \clkBoard~input_o\ $end
$var wire 1 c! \clkBoard~inputclkctrl_outclk\ $end
$var wire 1 d! \DivFreq0|FFJK0|temp~0_combout\ $end
$var wire 1 e! \DivFreq0|FFJK0|temp~feeder_combout\ $end
$var wire 1 f! \DivFreq0|FFJK0|temp~q\ $end
$var wire 1 g! \DivFreq0|FFJK1|temp~0_combout\ $end
$var wire 1 h! \DivFreq0|FFJK1|temp~feeder_combout\ $end
$var wire 1 i! \DivFreq0|FFJK1|temp~q\ $end
$var wire 1 j! \DivFreq0|FFJK2|temp~0_combout\ $end
$var wire 1 k! \DivFreq0|FFJK2|temp~feeder_combout\ $end
$var wire 1 l! \DivFreq0|FFJK2|temp~q\ $end
$var wire 1 m! \DivFreq0|FFJK3|temp~0_combout\ $end
$var wire 1 n! \DivFreq0|FFJK3|temp~q\ $end
$var wire 1 o! \clkRom~combout\ $end
$var wire 1 p! \clkRom~clkctrl_outclk\ $end
$var wire 1 q! \DivFreq0|FFJK3|temp~clkctrl_outclk\ $end
$var wire 1 r! \DivFreq1|FFJK0|temp~0_combout\ $end
$var wire 1 s! \DivFreq1|FFJK0|temp~q\ $end
$var wire 1 t! \DivFreq1|FFJK1|temp~0_combout\ $end
$var wire 1 u! \DivFreq1|FFJK1|temp~q\ $end
$var wire 1 v! \DivFreq1|FFJK2|temp~0_combout\ $end
$var wire 1 w! \DivFreq1|FFJK2|temp~q\ $end
$var wire 1 x! \DivFreq1|FFJK3|temp~0_combout\ $end
$var wire 1 y! \DivFreq1|FFJK3|temp~q\ $end
$var wire 1 z! \clkAccu~combout\ $end
$var wire 1 {! \clkAccu~clkctrl_outclk\ $end
$var wire 1 |! \clkMux~combout\ $end
$var wire 1 }! \clkMux~clkctrl_outclk\ $end
$var wire 1 ~! \Mux0|Dout[1]~5_combout\ $end
$var wire 1 !" \clkRam~combout\ $end
$var wire 1 "" \clkRam~clkctrl_outclk\ $end
$var wire 1 #" \Sub0|adder1|s~combout\ $end
$var wire 1 $" \Mux0|Dout[1]~6_combout\ $end
$var wire 1 %" \Sum0|adder1|s~combout\ $end
$var wire 1 &" \Mux0|Dout[1]~7_combout\ $end
$var wire 1 '" \Mux0|Dout~8_combout\ $end
$var wire 1 (" \Mux0|Dout~9_combout\ $end
$var wire 1 )" \Mux0|Dout~10_combout\ $end
$var wire 1 *" \Accu0|FFD1|q~q\ $end
$var wire 1 +" \Sub0|adder1|o~0_combout\ $end
$var wire 1 ," \Sum0|adder1|o~0_combout\ $end
$var wire 1 -" \Mux0|Dout~11_combout\ $end
$var wire 1 ." \Mux0|Dout~12_combout\ $end
$var wire 1 /" \Mux0|Dout~16_combout\ $end
$var wire 1 0" \Mux0|Dout~17_combout\ $end
$var wire 1 1" \Accu0|FFD2|q~q\ $end
$var wire 1 2" \Sub0|adder3|s~0_combout\ $end
$var wire 1 3" \Sub0|adder3|s~combout\ $end
$var wire 1 4" \Mux0|Dout~13_combout\ $end
$var wire 1 5" \Sum0|adder3|s~combout\ $end
$var wire 1 6" \Mux0|Dout~14_combout\ $end
$var wire 1 7" \Mux0|Dout~15_combout\ $end
$var wire 1 8" \Accu0|FFD3|q~q\ $end
$var wire 1 9" \wren~0_combout\ $end
$var wire 1 :" \wren~1_combout\ $end
$var wire 1 ;" \Mux0|Dout~3_combout\ $end
$var wire 1 <" \Mux0|Dout~0_combout\ $end
$var wire 1 =" \Mux0|Dout~1_combout\ $end
$var wire 1 >" \Mux0|Dout~2_combout\ $end
$var wire 1 ?" \Mux0|Dout~4_combout\ $end
$var wire 1 @" \Accu0|FFD0|q~feeder_combout\ $end
$var wire 1 A" \Accu0|FFD0|q~q\ $end
$var wire 1 B" \Mux0|Dout\ [3] $end
$var wire 1 C" \Mux0|Dout\ [2] $end
$var wire 1 D" \Mux0|Dout\ [1] $end
$var wire 1 E" \Mux0|Dout\ [0] $end
$var wire 1 F" \Rom0|altsyncram_component|auto_generated|q_a\ [7] $end
$var wire 1 G" \Rom0|altsyncram_component|auto_generated|q_a\ [6] $end
$var wire 1 H" \Rom0|altsyncram_component|auto_generated|q_a\ [5] $end
$var wire 1 I" \Rom0|altsyncram_component|auto_generated|q_a\ [4] $end
$var wire 1 J" \Rom0|altsyncram_component|auto_generated|q_a\ [3] $end
$var wire 1 K" \Rom0|altsyncram_component|auto_generated|q_a\ [2] $end
$var wire 1 L" \Rom0|altsyncram_component|auto_generated|q_a\ [1] $end
$var wire 1 M" \Rom0|altsyncram_component|auto_generated|q_a\ [0] $end
$var wire 1 N" \Ram0|altsyncram_component|auto_generated|q_a\ [3] $end
$var wire 1 O" \Ram0|altsyncram_component|auto_generated|q_a\ [2] $end
$var wire 1 P" \Ram0|altsyncram_component|auto_generated|q_a\ [1] $end
$var wire 1 Q" \Ram0|altsyncram_component|auto_generated|q_a\ [0] $end
$upscope $end
$upscope $end
$enddefinitions $end
#0
$dumpvars
0!
02
13
x4
15
16
17
18
19
1:
0;
0N!
zO!
zP!
zQ!
0R!
0S!
0T!
0U!
0V!
0W!
0X!
0Y!
0Z!
0[!
0\!
0]!
0^!
0_!
0`!
0a!
0b!
0c!
1d!
1e!
0f!
0g!
0h!
0i!
0j!
0k!
0l!
0m!
0n!
0o!
0p!
0q!
1r!
0s!
0t!
0u!
0v!
0w!
0x!
0y!
0z!
0{!
0|!
0}!
1~!
0!"
0""
1#"
0$"
0%"
0&"
0'"
0("
0)"
0*"
1+"
0,"
0-"
0."
0/"
00"
01"
02"
13"
04"
05"
06"
07"
08"
09"
0:"
0;"
0<"
0="
0>"
0?"
0@"
0A"
0<
0=
0>
0?
0@
0A
0B
0C
0D
0E
0F
0G
0H
0I
0J
0K
0P
0Q
0R
0S
0T
0U
0V
0W
0X
0Y
0Z
0[
0\
0]
0^
0_
0`
0a
0x
0y
0z
0{
0|
0}
0~
0!!
0"!
0#!
0$!
0%!
0&!
0'!
0(!
0)!
0*!
0+!
0B"
0C"
0D"
0E"
0F"
0G"
0H"
0I"
0J"
0K"
0L"
0M"
0N"
0O"
0P"
0Q"
1B!
1C!
1D!
0E!
1>!
1?!
1@!
0A!
1J!
1K!
1L!
0M!
1:!
1;!
1<!
0=!
1F!
1G!
1H!
0I!
16!
17!
18!
09!
0,!
0-!
0.!
0/!
00!
01!
02!
03!
04!
05!
0"
0#
0$
0%
0&
0'
0(
0)
0*
0+
0,
0-
0.
0/
00
01
0L
0M
0N
0O
0b
0c
0d
0e
0f
0g
0h
0i
0j
0k
0l
0m
0n
0o
0p
0q
0r
0s
0t
0u
0v
0w
$end
#2000
1!
1;
1b!
1E!
1c!
1f!
0d!
1g!
1o!
1A!
1h!
0e!
1p!
#2500
1a
1\
1M"
1H"
1w
1W!
1R!
0~!
19"
1B
1?
1(
1%
#4000
0!
0;
0b!
0E!
0c!
#6000
1!
1;
1b!
1E!
1i!
0g!
1j!
0o!
1|!
1c!
0A!
1I!
1k!
0h!
0f!
1}!
0p!
1d!
1g!
0j!
0|!
1!"
0I!
19!
0k!
1h!
1e!
1""
0}!
#6500
1+!
1Q"
1^!
0#"
0+"
1<"
1="
1K
1>"
03"
11
1?"
#8000
0!
0;
0b!
0E!
0c!
#10000
1!
1;
1b!
1E!
1c!
1f!
0d!
0g!
1j!
1|!
0!"
1I!
09!
1k!
0h!
0e!
0""
1}!
1E"
1@"
#12000
0!
0;
0b!
0E!
0c!
#14000
1!
1;
1b!
1E!
0i!
1l!
1g!
0|!
1c!
0I!
1h!
0f!
0}!
1d!
0g!
1z!
1=!
0h!
1e!
1{!
1A"
1s
1Z!
1#"
1%"
1+"
1;"
1G
13"
1-
#16000
0!
0;
0b!
0E!
0c!
#18000
1!
1;
1b!
1E!
1c!
1f!
0d!
1g!
0z!
0=!
1h!
0e!
0{!
#20000
0!
0;
0b!
0E!
0c!
#22000
1!
1;
1b!
1E!
1i!
0g!
0j!
1m!
1c!
0k!
0h!
0f!
1n!
1M!
1d!
1g!
1j!
1k!
1h!
1e!
1q!
1s!
1O
0r!
1t!
#24000
0!
0;
0b!
0E!
0c!
#26000
1!
1;
1b!
1E!
1c!
1f!
0d!
0g!
0j!
0m!
0k!
0h!
0e!
#28000
0!
0;
0b!
0E!
0c!
#30000
1!
1;
1b!
1E!
0i!
0l!
1g!
1m!
1c!
1h!
0f!
1d!
0g!
0h!
1e!
#32000
0!
0;
0b!
0E!
0c!
#34000
1!
1;
1b!
1E!
1c!
1f!
0d!
1g!
1h!
0e!
#36000
0!
0;
0b!
0E!
0c!
#38000
1!
1;
1b!
1E!
1i!
0g!
1j!
1c!
1k!
0h!
0f!
1d!
1g!
0j!
0k!
1h!
1e!
#40000
0!
0;
0b!
0E!
0c!
#42000
1!
1;
1b!
1E!
1c!
1f!
0d!
0g!
1j!
1k!
0h!
0e!
#44000
0!
0;
0b!
0E!
0c!
#46000
1!
1;
1b!
1E!
0i!
1l!
1g!
1c!
1h!
0f!
1d!
0g!
0h!
1e!
#48000
0!
0;
0b!
0E!
0c!
#50000
1!
1;
1b!
1E!
1c!
1f!
0d!
1g!
1h!
0e!
#52000
0!
0;
0b!
0E!
0c!
#54000
1!
1;
1b!
1E!
1i!
0g!
0j!
0m!
1c!
0k!
0h!
0f!
0n!
0M!
1d!
1g!
1j!
1!"
19!
1k!
1h!
1e!
0q!
1""
#56000
0!
0;
0b!
0E!
0c!
#58000
1!
1;
1b!
1E!
1c!
1f!
0d!
0g!
0j!
1m!
0!"
09!
0k!
0h!
0e!
0""
#60000
0!
0;
0b!
0E!
0c!
#62000
1!
1;
1b!
1E!
0i!
0l!
1g!
0m!
1o!
1c!
1A!
1h!
0f!
1p!
1d!
0g!
0o!
0A!
0h!
1e!
0p!
#64000
0!
0;
0b!
0E!
0c!
#66000
1!
1;
1b!
1E!
1c!
1f!
0d!
1g!
1o!
1A!
1h!
0e!
1p!
#66500
0a
1`
1]
0M"
1L"
1I"
0w
1v
1V!
1S!
0R!
1~!
1&"
1:"
0<"
1C
1>
0?
1)
0%
1$
#68000
0!
0;
0b!
0E!
0c!
#70000
1!
1;
1b!
1E!
1i!
0g!
1j!
0o!
1|!
1c!
0A!
1I!
1k!
0h!
0f!
1}!
0p!
1d!
1g!
0j!
0|!
1!"
0I!
19!
0k!
1h!
1e!
1""
0}!
#72000
0!
0;
0b!
0E!
0c!
#74000
1!
1;
1b!
1E!
1c!
1f!
0d!
0g!
1j!
1|!
0!"
1I!
09!
1k!
0h!
0e!
0""
1}!
#76000
0!
0;
0b!
0E!
0c!
#78000
1!
1;
1b!
1E!
0i!
1l!
1g!
0|!
1c!
0I!
1h!
0f!
0}!
1d!
0g!
1z!
1=!
0h!
1e!
1{!
#80000
0!
0;
0b!
0E!
0c!
#82000
1!
1;
1b!
1E!
1c!
1f!
0d!
1g!
0z!
0=!
1h!
0e!
0{!
#84000
0!
0;
0b!
0E!
0c!
#86000
1!
1;
1b!
1E!
1i!
0g!
0j!
1m!
1c!
0k!
0h!
0f!
1n!
1M!
1d!
1g!
1j!
1k!
1h!
1e!
1q!
0s!
1u!
0O
1N
1r!
#88000
0!
0;
0b!
0E!
0c!
#90000
1!
1;
1b!
1E!
1c!
1f!
0d!
0g!
0j!
0m!
0k!
0h!
0e!
#92000
0!
0;
0b!
0E!
0c!
#94000
1!
1;
1b!
1E!
0i!
0l!
1g!
1m!
1c!
1h!
0f!
1d!
0g!
0h!
1e!
#96000
0!
0;
0b!
0E!
0c!
#98000
1!
1;
1b!
1E!
1c!
1f!
0d!
1g!
1h!
0e!
#100000
0!
0;
0b!
0E!
0c!
#102000
1!
1;
1b!
1E!
1i!
0g!
1j!
1c!
1k!
0h!
0f!
1d!
1g!
0j!
0k!
1h!
1e!
#104000
0!
0;
0b!
0E!
0c!
#106000
1!
1;
1b!
1E!
1c!
1f!
0d!
0g!
1j!
1k!
0h!
0e!
#108000
0!
0;
0b!
0E!
0c!
#110000
1!
1;
1b!
1E!
0i!
1l!
1g!
1c!
1h!
0f!
1d!
0g!
0h!
1e!
#112000
0!
0;
0b!
0E!
0c!
#114000
1!
1;
1b!
1E!
1c!
1f!
0d!
1g!
1h!
0e!
#116000
0!
0;
0b!
0E!
0c!
#118000
1!
1;
1b!
1E!
1i!
0g!
0j!
0m!
1c!
0k!
0h!
0f!
0n!
0M!
1d!
1g!
1j!
1!"
19!
1k!
1h!
1e!
0q!
1""
#120000
0!
0;
0b!
0E!
0c!
#122000
1!
1;
1b!
1E!
1c!
1f!
0d!
0g!
0j!
1m!
0!"
09!
0k!
0h!
0e!
0""
#124000
0!
0;
0b!
0E!
0c!
#126000
1!
1;
1b!
1E!
0i!
0l!
1g!
0m!
1o!
1c!
1A!
1h!
0f!
1p!
1d!
0g!
0o!
0A!
0h!
1e!
0p!
#128000
0!
0;
0b!
0E!
0c!
#130000
1!
1;
1b!
1E!
1c!
1f!
0d!
1g!
1o!
1A!
1h!
0e!
1p!
#130500
0`
1_
0]
0L"
1K"
0I"
0v
1u
0V!
1T!
0S!
0~!
0&"
0:"
1<"
0C
1=
0>
0)
0$
1#
#132000
0!
0;
0b!
0E!
0c!
#134000
1!
1;
1b!
1E!
1i!
0g!
1j!
0o!
1|!
1c!
0A!
1I!
1k!
0h!
0f!
1}!
0p!
1d!
1g!
0j!
0|!
1!"
0I!
19!
0k!
1h!
1e!
1""
0}!
#134500
0+!
1)!
0Q"
1O"
1`!
0^!
1-"
1/"
03"
0%"
0="
1I
0K
0>"
1."
01
1/
0/"
10"
0?"
#136000
0!
0;
0b!
0E!
0c!
#138000
1!
1;
1b!
1E!
1c!
1f!
0d!
0g!
1j!
1|!
0!"
1I!
09!
1k!
0h!
0e!
0""
1}!
1C"
0E"
0@"
#140000
0!
0;
0b!
0E!
0c!
#142000
1!
1;
1b!
1E!
0i!
1l!
1g!
0|!
1c!
0I!
1h!
0f!
0}!
1d!
0g!
1z!
1=!
0h!
1e!
1{!
11"
0A"
0s
1q
0Z!
1\!
0;"
0<"
1/"
13"
15"
0G
1E
0-
1+
#144000
0!
0;
0b!
0E!
0c!
#146000
1!
1;
1b!
1E!
1c!
1f!
0d!
1g!
0z!
0=!
1h!
0e!
0{!
#148000
0!
0;
0b!
0E!
0c!
#150000
1!
1;
1b!
1E!
1i!
0g!
0j!
1m!
1c!
0k!
0h!
0f!
1n!
1M!
1d!
1g!
1j!
1k!
1h!
1e!
1q!
1s!
1O
0r!
0t!
1v!
#152000
0!
0;
0b!
0E!
0c!
#154000
1!
1;
1b!
1E!
1c!
1f!
0d!
0g!
0j!
0m!
0k!
0h!
0e!
#156000
0!
0;
0b!
0E!
0c!
#158000
1!
1;
1b!
1E!
0i!
0l!
1g!
1m!
1c!
1h!
0f!
1d!
0g!
0h!
1e!
#160000
0!
0;
0b!
0E!
0c!
#162000
1!
1;
1b!
1E!
1c!
1f!
0d!
1g!
1h!
0e!
#164000
0!
0;
0b!
0E!
0c!
#166000
1!
1;
1b!
1E!
1i!
0g!
1j!
1c!
1k!
0h!
0f!
1d!
1g!
0j!
0k!
1h!
1e!
#168000
0!
0;
0b!
0E!
0c!
#170000
1!
1;
1b!
1E!
1c!
1f!
0d!
0g!
1j!
1k!
0h!
0e!
#172000
0!
0;
0b!
0E!
0c!
#174000
1!
1;
1b!
1E!
0i!
1l!
1g!
1c!
1h!
0f!
1d!
0g!
0h!
1e!
#176000
0!
0;
0b!
0E!
0c!
#178000
1!
1;
1b!
1E!
1c!
1f!
0d!
1g!
1h!
0e!
#180000
0!
0;
0b!
0E!
0c!
#182000
1!
1;
1b!
1E!
1i!
0g!
0j!
0m!
1c!
0k!
0h!
0f!
0n!
0M!
1d!
1g!
1j!
1!"
19!
1k!
1h!
1e!
0q!
1""
#184000
0!
0;
0b!
0E!
0c!
#186000
1!
1;
1b!
1E!
1c!
1f!
0d!
0g!
0j!
1m!
0!"
09!
0k!
0h!
0e!
0""
#188000
0!
0;
0b!
0E!
0c!
#190000
1!
1;
1b!
1E!
0i!
0l!
1g!
0m!
1o!
1c!
1A!
1h!
0f!
1p!
1d!
0g!
0o!
0A!
0h!
1e!
0p!
#192000
0!
0;
0b!
0E!
0c!
#194000
1!
1;
1b!
1E!
1c!
1f!
0d!
1g!
1o!
1A!
1h!
0e!
1p!
#194500
1`
0_
1]
0\
1[
1Z
1L"
0K"
1I"
0H"
1G"
1F"
1v
0u
1Y!
1X!
0W!
1V!
0T!
1S!
1>"
1$"
09"
1~!
1@
1A
0B
1C
0=
1>
1("
00"
16"
1)
0(
1'
1&
1$
0#
#196000
0!
0;
0b!
0E!
0c!
#198000
1!
1;
1b!
1E!
1i!
0g!
1j!
0o!
1|!
1c!
0A!
1I!
1k!
0h!
0f!
1}!
0p!
1d!
1g!
0j!
0|!
1!"
0I!
19!
0k!
1h!
1e!
0C"
1""
0}!
#198500
1+!
0)!
1Q"
0O"
0`!
1^!
0-"
0/"
05"
0#"
0+"
1;"
0I
1K
1?"
1)"
11
0/
#200000
0!
0;
0b!
0E!
0c!
#202000
1!
1;
1b!
1E!
1c!
1f!
0d!
0g!
1j!
1|!
0!"
1I!
09!
1k!
0h!
0e!
0""
1}!
1D"
1E"
1@"
